Name,Stars,Producer,Director,Production Company,Copies,Rental Fee
Aladdin,"Will Smith,Mena Massoud,Naomi Scott,Marwan Kenzari,Navid Negahban","Dan Lin,Jonathan Eirich",Guy Ritchie,"Walt Disney Pictures,Rideback",300,1.5
Mrs. Doubtfire,"Robin Williams,Sally Field,Pierce Brosnan,Harvey Fierstein,Robert Prosky","Marsha Garces Williams,Robin Williams,Mark Radcliffe",Chris Columbus,"20th Century Fox,Blue Wolf Productions",100,1.5
Mulan,"Yifei Liu,Donnie Yen,Jason Scott Lee,Yoson An,Jet Li","Chris Bender,Jake Weiner,Jason T. Reed",Niki Caro,"Walt Disney Pictures,Jason T. Reed Productions,Good Fear Productions",550,1.5
Shang-Chi and the Legend of the Ten Rings,"Simu Liu,Awkwafina,Meng'er Zhang,Fala Chen,Tony Leung","Kevin Feige,Jonathan Schwartz",Destin Daniel Cretton,Marvel Studios,600,1.5
Spider-Man: No Way Home,"Tom Holland,Zendaya,Benedict Cumberbatch,Jacob Batalon,Jon Favreau","Kevin Feige,Amy Pascal",Jon Watts,"Columbia Pictures,Marvel Studios,Pascal Pictures",250,1.5
The Greatest Showman,"Hugh Jackman,Zac Efron,Michelle Williams,Rebecca Ferguson,Zendaya","Laurence Mark,Peter Chernin,Jenno Topping",Michael Gracey,"Laurence Mark Productions,Chernin Entertainment,TSG Entertainment",500,1.5
The Pacifier,"Vin Diesel,Lauren Graham,Faith Ford,Brittany Snow,Max Thieriot,Carol Kane,Brad Garrett","Roger Birnbaum,Gary Barber,Jonathan Glickman, Adam Shankman",Adamn Shankman,"Walt Disney Pictures,Spyglass Entertainment",0,1.5
